isim.log
ISim log file
Running: F:\PROJECTS\final_year_project\test_aes_isim_beh.exe -intstyle ise -gui -tclbatch isim.cmd -wdb F:/PROJECTS/final_year_project/test_aes_isim_beh.wdb 
ISim P.28xd (signature 0xa0883be4)
WARNING: A WEBPACK license was found.
WARNING: Please use Xilinx License Configuration Manager to check out a full ISim license.
WARNING: ISim will run in Lite mode. Please refer to the ISim documentation for more information on the differences between the Lite and the Full version.
This is a Lite version of ISim.
Time resolution is 1 ps
# onerror resume
# wave add /
# run 1000 ns
Simulator is doing circuit initialization process.
Finished circuit initialization process.
                   0state= 0 key=xxxxxxxxxxxxxxxxxxxxxxxxxxxxxxxx reg1=xxxxxxxxxxxxxxxxxxxxxxxxxxxxxxxx reg2=00000000000000000000000000000000 dataout=xxxxxxxxxxxxxxxxxxxxxxxxxxxxxxxx
                  20state= 0 key=2bxxxxxx7exxxxxx15xxxxxx16xxxxxx reg1=xxxxxxxxxxxxxxxxxxxxxxxxxxxxxxxx reg2=00000000000000000000000000000000 dataout=xxxxxxxxxxxxxxxxxxxxxxxxxxxxxxxx
                  50state= 1 key=2bxxxxxx7exxxxxx15xxxxxx16xxxxxx reg1=xxxxxxxxxxxxxxxxxxxxxxxxxxxxxxxx reg2=00000000000000000000000000000000 dataout=xxxxxxxxxxxxxxxxxxxxxxxxxxxxxxxx
                  60state= 1 key=2b28xxxx7eaexxxx15d2xxxx16a6xxxx reg1=xxxxxxxxxxxxxxxxxxxxxxxxxxxxxxxx reg2=00000000000000000000000000000000 dataout=xxxxxxxxxxxxxxxxxxxxxxxxxxxxxxxx
                  80state= 1 key=2b28abxx7eaef7xx15d215xx16a688xx reg1=xxxxxxxxxxxxxxxxxxxxxxxxxxxxxxxx reg2=00000000000000000000000000000000 dataout=xxxxxxxxxxxxxxxxxxxxxxxxxxxxxxxx
                  90state= 2 key=2b28abxx7eaef7xx15d215xx16a688xx reg1=xxxxxxxxxxxxxxxxxxxxxxxxxxxxxxxx reg2=328831e0435a3137f6309807a88da234 dataout=xxxxxxxxxxxxxxxxxxxxxxxxxxxxxxxx
                 100state= 2 key=2b28ab097eaef7cf15d2154f16a6883c reg1=xxxxxxxxxxxxxxxxxxxxxxxxxxxxxxxx reg2=328831e0435a3137f6309807a88da234 dataout=xxxxxxxxxxxxxxxxxxxxxxxxxxxxxxxx
                 120state= 2 key=2b28ab097eaef7cf15d2154f16a6883c reg1=a0xxxxxxfaxxxxxxfexxxxxx17xxxxxx reg2=328831e0435a3137f6309807a88da234 dataout=xxxxxxxxxxxxxxxxxxxxxxxxxxxxxxxx
                 130state= 3 key=2b28ab097eaef7cf15d2154f16a6883c reg1=a0xxxxxxfaxxxxxxfexxxxxx17xxxxxx reg2=328831e0435a3137f6309807a88da235 dataout=xxxxxxxxxxxxxxxxxxxxxxxxxxxxxxxx
                 140state= 3 key=2b28ab097eaef7cf15d2154f16a6883c reg1=a088xxxxfa54xxxxfe2cxxxx17b1xxxx reg2=328831e0435a3137f6309807a88da235 dataout=xxxxxxxxxxxxxxxxxxxxxxxxxxxxxxxx
                 160state= 3 key=2b28ab097eaef7cf15d2154f16a6883c reg1=a08823xxfa54a3xxfe2c39xx17b139xx reg2=328831e0435a3137f6309807a88da235 dataout=xxxxxxxxxxxxxxxxxxxxxxxxxxxxxxxx
                 170state= 4 key=2b28ab097eaef7cf15d2154f16a6883c reg1=a08823xxfa54a3xxfe2c39xx17b139xx reg2=d4e0b81ebfb441275d52119830aef1e5 dataout=xxxxxxxxxxxxxxxxxxxxxxxxxxxxxxxx
                 180state= 4 key=2b28ab097eaef7cf15d2154f16a6883c reg1=a088232afa54a36cfe2c397617b13905 reg2=d4e0b81ebfb441275d52119830aef1e5 dataout=xxxxxxxxxxxxxxxxxxxxxxxxxxxxxxxx
                 200state= 4 key=f228ab09c2aef7cf95d2154ff2a6883c reg1=a088232afa54a36cfe2c397617b13905 reg2=d4e0b81ebfb441275d52119830aef1e5 dataout=xxxxxxxxxxxxxxxxxxxxxxxxxxxxxxxx
                 210state= 5 key=f228ab09c2aef7cf95d2154ff2a6883c reg1=a088232afa54a36cfe2c397617b13905 reg2=d4e0b81ebfb441275d52119801aef1e5 dataout=xxxxxxxxxxxxxxxxxxxxxxxxxxxxxxxx
                 220state= 5 key=f27aab09c296f7cf95b9154ff243883c reg1=a088232afa54a36cfe2c397617b13905 reg2=d4e0b81ebfb441275d52119801aef1e5 dataout=xxxxxxxxxxxxxxxxxxxxxxxxxxxxxxxx
                 240state= 5 key=f27a5909c29635cf95b9804ff2437a3c reg1=a088232afa54a36cfe2c397617b13905 reg2=d4e0b81ebfb441275d52119801aef1e5 dataout=xxxxxxxxxxxxxxxxxxxxxxxxxxxxxxxx
                 250state= 6 key=f27a5909c29635cf95b9804ff2437a3c reg1=a088232afa54a36cfe2c397617b13905 reg2=49457f77db3902de8753d2963b89f11a dataout=xxxxxxxxxxxxxxxxxxxxxxxxxxxxxxxx
                 260state= 6 key=f27a5973c296355995b980f6f2437a7f reg1=a088232afa54a36cfe2c397617b13905 reg2=49457f77db3902de8753d2963b89f11a dataout=xxxxxxxxxxxxxxxxxxxxxxxxxxxxxxxx
                 280state= 6 key=f27a5973c296355995b980f6f2437a7f reg1=3d88232a8054a36c472c39767db13905 reg2=49457f77db3902de8753d2963b89f11a dataout=xxxxxxxxxxxxxxxxxxxxxxxxxxxxxxxx
                 290state= 7 key=f27a5973c296355995b980f6f2437a7f reg1=3d88232a8054a36c472c39767db13905 reg2=2a457f77db390295875371963b60f11a dataout=xxxxxxxxxxxxxxxxxxxxxxxxxxxxxxxx
                 300state= 7 key=f27a5973c296355995b980f6f2437a7f reg1=3d47232a8016a36c47fe39767d3e3905 reg2=2a457f77db390295875371963b60f11a dataout=xxxxxxxxxxxxxxxxxxxxxxxxxxxxxxxx
                 320state= 7 key=f27a5973c296355995b980f6f2437a7f reg1=3d471e2a8016236c47fe7e767d3e4405 reg2=2a457f77db390295875371963b60f11a dataout=xxxxxxxxxxxxxxxxxxxxxxxxxxxxxxxx
                 330state= 8 key=f27a5973c296355995b980f6f2437a7f reg1=3d471e2a8016236c47fe7e767d3e4405 reg2=acef1345c1b52373d65acf11b87bdfb5 dataout=xxxxxxxxxxxxxxxxxxxxxxxxxxxxxxxx
                 340state= 8 key=f27a5973c296355995b980f6f2437a7f reg1=3d471e6d8016237a47fe7e887d3e443b reg2=acef1345c1b52373d65acf11b87bdfb5 dataout=xxxxxxxxxxxxxxxxxxxxxxxxxxxxxxxx
                 360state= 8 key=ef7a597344963559a5b980f641437a7f reg1=3d471e6d8016237a47fe7e887d3e443b reg2=acef1345c1b52373d65acf11b87bdfb5 dataout=xxxxxxxxxxxxxxxxxxxxxxxxxxxxxxxx
                 370state= 9 key=ef7a597344963559a5b980f641437a7f reg1=3d471e6d8016237a47fe7e887d3e443b reg2=50c4fdd5187149cef0d7eb2e3e24f7a3 dataout=xxxxxxxxxxxxxxxxxxxxxxxxxxxxxxxx
                 380state= 9 key=efa8597344523559a55b80f6417f7a7f reg1=3d471e6d8016237a47fe7e887d3e443b reg2=50c4fdd5187149cef0d7eb2e3e24f7a3 dataout=xxxxxxxxxxxxxxxxxxxxxxxxxxxxxxxx
                 400state= 9 key=efa8b67344527159a55b25f6417f3b7f reg1=3d471e6d8016237a47fe7e887d3e443b reg2=50c4fdd5187149cef0d7eb2e3e24f7a3 dataout=xxxxxxxxxxxxxxxxxxxxxxxxxxxxxxxx
                 410state=10 key=efa8b67344527159a55b25f6417f3b7f reg1=3d471e6d8016237a47fe7e887d3e443b reg2=5285e3f6a411cf50c86a2f5e9428d707 dataout=xxxxxxxxxxxxxxxxxxxxxxxxxxxxxxxx
                 420state=10 key=efa8b6db4452710ba55b25ad417f3b00 reg1=3d471e6d8016237a47fe7e887d3e443b reg2=5285e3f6a411cf50c86a2f5e9428d707 dataout=xxxxxxxxxxxxxxxxxxxxxxxxxxxxxxxx
                 440state=10 key=efa8b6db4452710ba55b25ad417f3b00 reg1=d4471e6dd116237ac6fe7e88f83e443b reg2=5285e3f6a411cf50c86a2f5e9428d707 dataout=xxxxxxxxxxxxxxxxxxxxxxxxxxxxxxxx
                 450state=11 key=efa8b6db4452710ba55b25ad417f3b00 reg1=d4471e6dd116237ac6fe7e88f83e443b reg2=218d07ad385e99036bc74e4f98d41776 dataout=xxxxxxxxxxxxxxxxxxxxxxxxxxxxxxxx
                 460state=11 key=efa8b6db4452710ba55b25ad417f3b00 reg1=d47c1e6dd183237ac69d7e88f887443b reg2=218d07ad385e99036bc74e4f98d41776 dataout=xxxxxxxxxxxxxxxxxxxxxxxxxxxxxxxx
                 480state=11 key=efa8b6db4452710ba55b25ad417f3b00 reg1=d47cca6dd183f27ac69db888f887bc3b reg2=218d07ad385e99036bc74e4f98d41776 dataout=xxxxxxxxxxxxxxxxxxxxxxxxxxxxxxxx
                 490state=12 key=efa8b6db4452710ba55b25ad417f3b00 reg1=d47cca6dd183f27ac69db888f887bc3b reg2=e1e83597fbc86c4f96aed2fb7c9bba53 dataout=xxxxxxxxxxxxxxxxxxxxxxxxxxxxxxxx
                 500state=12 key=efa8b6db4452710ba55b25ad417f3b00 reg1=d47cca11d183f2f9c69db815f887bcbc reg2=e1e83597fbc86c4f96aed2fb7c9bba53 dataout=xxxxxxxxxxxxxxxxxxxxxxxxxxxxxxxx
                 520state=12 key=6da8b6db8852710ba35b25ad7a7f3b00 reg1=d47cca11d183f2f9c69db815f887bcbc reg2=e1e83597fbc86c4f96aed2fb7c9bba53 dataout=xxxxxxxxxxxxxxxxxxxxxxxxxxxxxxxx
                 530state=13 key=6da8b6db8852710ba35b25ad7a7f3b00 reg1=d47cca11d183f2f9c69db815f887bcbc reg2=476ad124d9b8c50472c535da29be351f dataout=xxxxxxxxxxxxxxxxxxxxxxxxxxxxxxxx
                 540state=13 key=6d11b6db880b710ba33e25ad7afd3b00 reg1=d47cca11d183f2f9c69db815f887bcbc reg2=476ad124d9b8c50472c535da29be351f dataout=xxxxxxxxxxxxxxxxxxxxxxxxxxxxxxxx
                 560state=13 key=6d11dbdb880bf90ba33e86ad7afd4100 reg1=d47cca11d183f2f9c69db815f887bcbc reg2=476ad124d9b8c50472c535da29be351f dataout=xxxxxxxxxxxxxxxxxxxxxxxxxxxxxxxx
                 570state=14 key=6d11dbdb880bf90ba33e86ad7afd4100 reg1=d47cca11d183f2f9c69db815f887bcbc reg2=a178104c4fe8d5633d03a829fefcdf23 dataout=xxxxxxxxxxxxxxxxxxxxxxxxxxxxxxxx
                 580state=14 key=6d11dbca880bf900a33e86937afd41fd reg1=d47cca11d183f2f9c69db815f887bcbc reg2=a178104c4fe8d5633d03a829fefcdf23 dataout=xxxxxxxxxxxxxxxxxxxxxxxxxxxxxxxx
                 600state=14 key=6d11dbca880bf900a33e86937afd41fd reg1=4e7cca115483f2f9f79db8150e87bcbc reg2=a178104c4fe8d5633d03a829fefcdf23 dataout=xxxxxxxxxxxxxxxxxxxxxxxxxxxxxxxx
                 610state=15 key=6d11dbca880bf900a33e86937afd41fd reg1=4e7cca115483f2f9f79db8150e87bcbc reg2=a363cc6045610acdeeeac6c504e8262f dataout=xxxxxxxxxxxxxxxxxxxxxxxxxxxxxxxx
                 620state=15 key=6d11dbca880bf900a33e86937afd41fd reg1=4e5fca11545ff2f9f7c9b8150ef3bcbc reg2=a363cc6045610acdeeeac6c504e8262f dataout=xxxxxxxxxxxxxxxxxxxxxxxxxxxxxxxx
                 640state=15 key=6d11dbca880bf900a33e86937afd41fd reg1=4e5f8411545fa6f9f7c94f150ef3b2bc reg2=a363cc6045610acdeeeac6c504e8262f dataout=xxxxxxxxxxxxxxxxxxxxxxxxxxxxxxxx
                 650state=16 key=6d11dbca880bf900a33e86937afd41fd reg1=4e5f8411545fa6f9f7c94f150ef3b2bc reg2=f7279b548343b5ab403d31a93ff0ffd3 dataout=xxxxxxxxxxxxxxxxxxxxxxxxxxxxxxxx
                 660state=16 key=6d11dbca880bf900a33e86937afd41fd reg1=4e5f844e545fa6a6f7c94fdc0ef3b24f reg2=f7279b548343b5ab403d31a93ff0ffd3 dataout=xxxxxxxxxxxxxxxxxxxxxxxxxxxxxxxx
                 680state=16 key=ea11dbcad20bf900733e869321fd41fd reg1=4e5f844e545fa6a6f7c94fdc0ef3b24f reg2=f7279b548343b5ab403d31a93ff0ffd3 dataout=xxxxxxxxxxxxxxxxxxxxxxxxxxxxxxxx
                 690state=17 key=ea11dbcad20bf900733e869321fd41fd reg1=4e5f844e545fa6a6f7c94fdc0ef3b24f reg2=5938249185b1b8647a1d19702bccad19 dataout=xxxxxxxxxxxxxxxxxxxxxxxxxxxxxxxx
                 700state=17 key=eab5dbcad28df90073ba869321d241fd reg1=4e5f844e545fa6a6f7c94fdc0ef3b24f reg2=5938249185b1b8647a1d19702bccad19 dataout=xxxxxxxxxxxxxxxxxxxxxxxxxxxxxxxx
                 720state=17 key=eab531cad28d2b0073baf59321d260fd reg1=4e5f844e545fa6a6f7c94fdc0ef3b24f reg2=5938249185b1b8647a1d19702bccad19 dataout=xxxxxxxxxxxxxxxxxxxxxxxxxxxxxxxx
                 730state=18 key=eab531cad28d2b0073baf59321d260fd reg1=4e5f844e545fa6a6f7c94fdc0ef3b24f reg2=bed40ada3be16483d4f22c86fec8c04d dataout=xxxxxxxxxxxxxxxxxxxxxxxxxxxxxxxx
                 740state=18 key=eab5317fd28d2b8d73baf52921d2602f reg1=4e5f844e545fa6a6f7c94fdc0ef3b24f reg2=bed40ada3be16483d4f22c86fec8c04d dataout=xxxxxxxxxxxxxxxxxxxxxxxxxxxxxxxx
                 760state=18 key=eab5317fd28d2b8d73baf52921d2602f reg1=ac5f844e775fa6a666c94fdcf3f3b24f reg2=bed40ada3be16483d4f22c86fec8c04d dataout=xxxxxxxxxxxxxxxxxxxxxxxxxxxxxxxx
                 770state=19 key=eab5317fd28d2b8d73baf52921d2602f reg1=ac5f844e775fa6a666c94fdcf3f3b24f reg2=12056237e6a83856d7983a96782922b2 dataout=xxxxxxxxxxxxxxxxxxxxxxxxxxxxxxxx
                 780state=19 key=eab5317fd28d2b8d73baf52921d2602f reg1=ac19844e77faa6a666dc4fdcf321b24f reg2=12056237e6a83856d7983a96782922b2 dataout=xxxxxxxxxxxxxxxxxxxxxxxxxxxxxxxx
                 800state=19 key=eab5317fd28d2b8d73baf52921d2602f reg1=ac19284e77fad1a666dc29dcf321414f reg2=12056237e6a83856d7983a96782922b2 dataout=xxxxxxxxxxxxxxxxxxxxxxxxxxxxxxxx
                 810state=20 key=eab5317fd28d2b8d73baf52921d2602f reg1=ac19284e77fad1a666dc29dcf321414f reg2=87f24d976e4c90ec46e74ac3a68cd895 dataout=xxxxxxxxxxxxxxxxxxxxxxxxxxxxxxxx
                 820state=20 key=eab5317fd28d2b8d73baf52921d2602f reg1=ac19285777fad15c66dc2900f321416e reg2=87f24d976e4c90ec46e74ac3a68cd895 dataout=xxxxxxxxxxxxxxxxxxxxxxxxxxxxxxxx
                 840state=20 key=d0b5317f148d2b8df9baf529a8d2602f reg1=ac19285777fad15c66dc2900f321416e reg2=87f24d976e4c90ec46e74ac3a68cd895 dataout=xxxxxxxxxxxxxxxxxxxxxxxxxxxxxxxx
                 850state=21 key=d0b5317f148d2b8df9baf529a8d2602f reg1=ac19285777fad15c66dc2900f321416e reg2=5355068acbfc6bd77a37f4a0ddf60acd dataout=xxxxxxxxxxxxxxxxxxxxxxxxxxxxxxxx
                 860state=21 key=d0c9317f14ee2b8df925f529a889602f reg1=ac19285777fad15c66dc2900f321416e reg2=5355068acbfc6bd77a37f4a0ddf60acd dataout=xxxxxxxxxxxxxxxxxxxxxxxxxxxxxxxx
                 880state=21 key=d0c9e17f14ee3f8df9250c29a889c82f reg1=ac19285777fad15c66dc2900f321416e reg2=5355068acbfc6bd77a37f4a0ddf60acd dataout=xxxxxxxxxxxxxxxxxxxxxxxxxxxxxxxx
                 890state=22 key=d0c9e17f14ee3f8df9250c29a889c82f reg1=ac19285777fad15c66dc2900f321416e reg2=e9cb3daf31322e097d2c8907b5725f94 dataout=xxxxxxxxxxxxxxxxxxxxxxxxxxxxxxxx
                 900state=22 key=d0c9e1b614ee3f63f9250c0ca889c8a6 reg1=ac19285777fad15c66dc2900f321416e reg2=e9cb3daf31322e097d2c8907b5725f94 dataout=xxxxxxxxxxxxxxxxxxxxxxxxxxxxxxxx
                 930state=23 key=d0c9e1b614ee3f63f9250c0ca889c8a6 reg1=ac19285777fad15c66dc2900f321416e reg2=e93c855b11fefc2dd3d638a2a44798ba dataout=3902dc1925dc116a8409850b1dfb9732
                 970state=24 key=d0c9e1b614ee3f63f9250c0ca889c8a6 reg1=ac19285777fad15c66dc2900f321416e reg2=13297521a00c1a95687bc0c9a3d59690 dataout=39f564ed0510c34e2af334ae0cce501c
